{
  "project_info": {
    "project_number": "833531635751",
    "firebase_url": "https://meumoto-default-rtdb.firebaseio.com",
    "project_id": "meumoto",
    "storage_bucket": "meumoto.appspot.com"
  },
  "client": [
    {
      "client_info": {
        "mobilesdk_app_id": "1:833531635751:android:ebf642d2a581ab4c3cc602",
        "android_client_info": {
          "package_name": "com.meumotorista.driver"
        }
      },
      "oauth_client": [
        {
          "client_id": "833531635751-hfe1u6197i23lehem0o7k1gq57un18hg.apps.googleusercontent.com",
          "client_type": 3
        }
      ],
      "api_key": [
        {
          "current_key": "AIzaSyB83lKVsVtTDAwmlPdWR7X0IBXCWn-XXVA"
        }
      ],
      "services": {
        "appinvite_service": {
          "other_platform_oauth_client": [
            {
              "client_id": "833531635751-hfe1u6197i23lehem0o7k1gq57un18hg.apps.googleusercontent.com",
              "client_type": 3
            }
          ]
        }
      }
    },
    {
      "client_info": {
        "mobilesdk_app_id": "1:833531635751:android:04f9aac433013c363cc602",
        "android_client_info": {
          "package_name": "com.meumotorista.user"
        }
      },
      "oauth_client": [
        {
          "client_id": "833531635751-hfe1u6197i23lehem0o7k1gq57un18hg.apps.googleusercontent.com",
          "client_type": 3
        }
      ],
      "api_key": [
        {
          "current_key": "AIzaSyB83lKVsVtTDAwmlPdWR7X0IBXCWn-XXVA"
        }
      ],
      "services": {
        "appinvite_service": {
          "other_platform_oauth_client": [
            {
              "client_id": "833531635751-hfe1u6197i23lehem0o7k1gq57un18hg.apps.googleusercontent.com",
              "client_type": 3
            }
          ]
        }
      }
    },
    {
      "client_info": {
        "mobilesdk_app_id": "1:833531635751:android:96adb7e1524849a43cc602",
        "android_client_info": {
          "package_name": "com.palmdriver.driver"
        }
      },
      "oauth_client": [
        {
          "client_id": "833531635751-hfe1u6197i23lehem0o7k1gq57un18hg.apps.googleusercontent.com",
          "client_type": 3
        }
      ],
      "api_key": [
        {
          "current_key": "AIzaSyB83lKVsVtTDAwmlPdWR7X0IBXCWn-XXVA"
        }
      ],
      "services": {
        "appinvite_service": {
          "other_platform_oauth_client": [
            {
              "client_id": "833531635751-hfe1u6197i23lehem0o7k1gq57un18hg.apps.googleusercontent.com",
              "client_type": 3
            }
          ]
        }
      }
    },
    {
      "client_info": {
        "mobilesdk_app_id": "1:833531635751:android:12121008bab14f723cc602",
        "android_client_info": {
          "package_name": "com.palmdriver.user"
        }
      },
      "oauth_client": [
        {
          "client_id": "833531635751-hfe1u6197i23lehem0o7k1gq57un18hg.apps.googleusercontent.com",
          "client_type": 3
        }
      ],
      "api_key": [
        {
          "current_key": "AIzaSyB83lKVsVtTDAwmlPdWR7X0IBXCWn-XXVA"
        }
      ],
      "services": {
        "appinvite_service": {
          "other_platform_oauth_client": [
            {
              "client_id": "833531635751-hfe1u6197i23lehem0o7k1gq57un18hg.apps.googleusercontent.com",
              "client_type": 3
            }
          ]
        }
      }
    },
    {
      "client_info": {
        "mobilesdk_app_id": "1:833531635751:android:9613592b74b00c993cc602",
        "android_client_info": {
          "package_name": "com.palmdrivermotorista.driver"
        }
      },
      "oauth_client": [
        {
          "client_id": "833531635751-hfe1u6197i23lehem0o7k1gq57un18hg.apps.googleusercontent.com",
          "client_type": 3
        }
      ],
      "api_key": [
        {
          "current_key": "AIzaSyB83lKVsVtTDAwmlPdWR7X0IBXCWn-XXVA"
        }
      ],
      "services": {
        "appinvite_service": {
          "other_platform_oauth_client": [
            {
              "client_id": "833531635751-hfe1u6197i23lehem0o7k1gq57un18hg.apps.googleusercontent.com",
              "client_type": 3
            }
          ]
        }
      }
    },
    {
      "client_info": {
        "mobilesdk_app_id": "1:833531635751:android:3645172129fb2e583cc602",
        "android_client_info": {
          "package_name": "com.palmdriveruser.user"
        }
      },
      "oauth_client": [
        {
          "client_id": "833531635751-hfe1u6197i23lehem0o7k1gq57un18hg.apps.googleusercontent.com",
          "client_type": 3
        }
      ],
      "api_key": [
        {
          "current_key": "AIzaSyB83lKVsVtTDAwmlPdWR7X0IBXCWn-XXVA"
        }
      ],
      "services": {
        "appinvite_service": {
          "other_platform_oauth_client": [
            {
              "client_id": "833531635751-hfe1u6197i23lehem0o7k1gq57un18hg.apps.googleusercontent.com",
              "client_type": 3
            }
          ]
        }
      }
    }
  ],
  "configuration_version": "1"
}